RPP norming tutorial
…
sb_nor_bin2

## $means_ns_sds_and_ses
## # A tibble: 188 × 7
##      age source                        mean seOfmean    sd  seOfsd     n
##    <dbl> <fct>                        <dbl>    <dbl> <dbl>   <dbl> <int>
##  1    21 RPP, normal                   6.63    0.218  1.65  0.144     NA
##  2    21 RPP, binomial                 6.54    0.228  1.60  0.0456    NA
##  3    21 RPP, binomial + ID intercept  6.55    0.255  1.83  0.0769    NA
##  4    21 Raw                           6.55    0.545  1.81 NA         11
##  5    22 RPP, normal                   6.66    0.203  1.67  0.133     NA
##  6    22 RPP, binomial                 6.58    0.209  1.61  0.0472    NA
##  7    22 RPP, binomial + ID intercept  6.61    0.235  1.83  0.0752    NA
##  8    22 Raw                           6.84    0.318  1.38 NA         19
##  9    23 RPP, normal                   6.71    0.183  1.69  0.124     NA
## 10    23 RPP, binomial                 6.64    0.185  1.61  0.0496    NA
## # ℹ 178 more rows
## 
## $overall_estimates
…
